^C:\USERS\STUDENT\DESKTOP\ZWARDON\KOLOS\KOLOS\KOLOS\SOURCE.CPP
C:\USERS\STUDENT\DESKTOP\ZWARDON\KOLOS\KOLOS\KOLOS\DEBUG\VC120.PDB
C:\USERS\STUDENT\DESKTOP\ZWARDON\KOLOS\KOLOS\KOLOS\DEBUG\VC120.IDB
C:\USERS\STUDENT\DESKTOP\ZWARDON\KOLOS\KOLOS\KOLOS\DEBUG\SOURCE.OBJ
